{
  "project_info": {
    "project_number": "974025332427",
    "firebase_url": "https://ezdan-realestate.firebaseio.com",
    "project_id": "ezdan-realestate",
    "storage_bucket": "ezdan-realestate.appspot.com"
  },
  "client": [
    {
      "client_info": {
        "mobilesdk_app_id": "1:974025332427:android:d376f765b73ef6cc",
        "android_client_info": {
          "package_name": "qa.ezdanrealestate.app"
        }
      },
      "oauth_client": [
        {
          "client_id": "974025332427-ag5d7klbbqdjlmuata4l66ggq8hh3fg8.apps.googleusercontent.com",
          "client_type": 3
        }
      ],
      "api_key": [
        {
          "current_key": "AIzaSyB12Enqh0shYDO6Yb7aF0IFNARkk4DNANY"
        }
      ],
      "services": {
        "analytics_service": {
          "status": 1
        },
        "appinvite_service": {
          "status": 1,
          "other_platform_oauth_client": []
        },
        "ads_service": {
          "status": 2
        }
      }
    }
  ],
  "configuration_version": "1"
}